{
  "venues": [
    {
      "description": "Wir sind ein Veranstaltungsort. Eine Plattform. Wir sind ein Kollektiv. Basisdemokratisch und solidarisch. Wir sind das Mensch Meier. Und ihr seid es auch, wenn ihr da seid. Wir wollen einen Raum erschaffen, in dem wir unsere Beziehungen selbstbestimmt formen. Das ist im Kapitalismus, im Patriarchat, leider kein erreichbares Ziel. Aber wir haben einfach schon mal angefangen, uns dieses Ziel als Weg formuliert. Für unsere Zukunft. In einem Raum für Inspiration, Intervention und Bewegung. KulturKunstPartyPolitik. Mit den Mitteln der Kritik und den Waffen der Kunst unordentlich Theater machen. Mensch Meier ",
      "name": "Mensch Meier",
      "geometry": [
        52.535069,
        13.452312
      ]
    },
    {
      "description": "The club is located in a former underground gay cruising toilet under the Yorckstrasse in Kreuzberg.",
      "name": "Zur Klappe",
      "geometry": [
        52.493039,
        13.387248
      ]
    },
    {
      "description": "Club for electronic Music directly in the heart of Berlin! Between Hakescher Markt and 1 min. away from S Alexanderplatz. Stylish Crowd and many of Berlins most known artists.",
      "name": "M-BIA",
      "geometry": [
        52.522437,
        13.409063
      ]
    },
    {
      "description": "Booze, Karaoke and Rock'n'Roll! Sparkles, disco lights, 14 private karaoke cabins and a big stage waiting for your performance! We have 10 cabins for walk-ins (for up to 10 guests) and 4 larger cabins for larger groups, which can be reserved in advance (for up to 18 guests). Mondays - MultiSEXual BOXhopping! Queer + Friends. Mix + Mingle! Box Sharing + Caring! 3,- Entry. Sing in the karaoke boxes all night long! Big stage opens at 22h. Tuesdays - The House of Presents’ Drag Show Doors at 9, pre-show at 10, main show at 11 Wednesdays - BOX HAPPY HOUR All cabins half-priced from 7pm - midnight Thursdays - Mixed Bag! Special Events, DJs, Live Musik, Queer Events, and more! Fridays / Saturday / Sunday: SING ON STAGE!",
      "name": "Monster Ronson's Ichiban Karaoke",
      "geometry": [
        52.505188,
        13.448437
      ]
    },
    {
      "description": "Ägyptisches & Arabisches Restaurant · Smoker's Lounge · Club · Café · Cocktail Bar · Der feine Orient in Berlin",
      "name": "Marooush Restaurant - Lounge - Bar - Club",
      "geometry": [
        52.500938,
        13.321438
      ]
    }
  ]
}